{
	"info": {
		"_postman_id": "803fce6a-8f71-4058-a075-7670fa549cd7",
		"name": "isafev3 (new)1",
		"schema": "https://schema.getpostman.com/json/collection/v2.1.0/collection.json"
	},
	"item": [
		{
			"name": "HR",
			"item": [
				{
					"name": "GET HR",
					"request": {
						"auth": {
							"type": "bearer",
							"bearer": [
								{
									"key": "token",
									"value": "eyJhbGciOiJIUzI1NiIsInR5cCI6IkpXVCJ9.eyJuYW1lIjoiRElDS1kgSVJXQU5UTyAiLCJpZCI6NjgzNCwiaXNhZmVfbm8iOiJCNDQxMjMiLCJpYXQiOjE1Njg2MDczMTgsImV4cCI6NDE2MDYwNzMxOH0.skO819QvIbIBjL8DqrpdBXjVCjBJmlHl6QBxiIpu36k",
									"type": "string"
								}
							]
						},
						"method": "GET",
						"header": [],
						"url": {
							"raw": "{{host}}/api/v1/hr/",
							"host": [
								"{{host}}"
							],
							"path": [
								"api",
								"v1",
								"hr",
								""
							]
						}
					},
					"response": []
				},
				{
					"name": "Reassign HR",
					"request": {
						"method": "POST",
						"header": [
							{
								"key": "Content-Type",
								"name": "Content-Type",
								"value": "application/json",
								"type": "text"
							}
						],
						"body": {
							"mode": "raw",
							"raw": "{\n\t\"reason\" : \"bukan wilayah saya\",\n\t\"AssignTo\": \"dony\",\n\t\"hazard_id\" : 13,\n    \"sender\": \"DIANA\"\n}"
						},
						"url": {
							"raw": "{{host}}/api/v1/hr/reassignHR",
							"host": [
								"{{host}}"
							],
							"path": [
								"api",
								"v1",
								"hr",
								"reassignHR"
							]
						}
					},
					"response": []
				},
				{
					"name": "/api/v1/hr/submit",
					"request": {
						"auth": {
							"type": "bearer",
							"bearer": [
								{
									"key": "token",
									"value": "eyJhbGciOiJIUzI1NiIsInR5cCI6IkpXVCJ9.eyJuYW1lIjoiRElDS1kgSVJXQU5UTyAiLCJpZCI6NjgzNCwiaXNhZmVfbm8iOiJCNDQxMjMiLCJyb2xlSWQiOjEsImlhdCI6MTU3OTUwODMxMCwiZXhwIjoxNTc5NzA4MzEwfQ.zeDMxH0AEj6H9qmAXISZ_fE5OHzkEhcd-gsgUNklV7s",
									"type": "string"
								}
							]
						},
						"method": "POST",
						"header": [
							{
								"key": "accept",
								"value": "application/json"
							},
							{
								"key": "accept-encoding",
								"value": "gzip"
							},
							{
								"key": "cache-control",
								"value": "no-cache"
							},
							{
								"key": "connection",
								"value": "Keep-Alive"
							},
							{
								"key": "content-length",
								"value": "282",
								"disabled": true
							},
							{
								"key": "host",
								"value": "localhost1.com:3040",
								"disabled": true
							},
							{
								"key": "user-agent",
								"value": "okhttp/3.12.1"
							},
							{
								"key": "Content-Type",
								"name": "Content-Type",
								"value": "application/json",
								"type": "text"
							}
						],
						"body": {
							"mode": "raw",
							"raw": "{\n    \"title\": \"satrio 12345\",\n    \"description\": \"satrio\",\n    \"area\": \"Pit Kusan Atas\",\n    \"location\": \"Front SOIL\",\n    \"risk\": \"low\",\n    \"isafe_no\": \"B67454\",\n    \"AssignTo\": \"B44123\",\n    \"ktadantta\": \"KTA\",\n    \"categories\": \"APD\",\n    \"source_of_cause\": \"Cara Penggunaan APD\",\n    \"photos\": [\n    \t\"abc.img\", \"asdd.img\"\n    \t],\n    \"qrCodes\":[{\n    \t\"isafe_no\":\"B8E3BD\",\n    \t\"name\":\"string\",\n    \t\"type\":\"string\"\n    }],\n    \"created_at\": \"2020-01-15T06:10:06.042Z\",\n    \"updated_at\": \"2020-01-15T06:10:06.042Z\",\n    \"location_id\": 1\n}"
						},
						"url": {
							"raw": "{{host}}/api/v1/hr/submit",
							"host": [
								"{{host}}"
							],
							"path": [
								"api",
								"v1",
								"hr",
								"submit"
							]
						}
					},
					"response": []
				},
				{
					"name": "hr.accept",
					"request": {
						"auth": {
							"type": "bearer",
							"bearer": [
								{
									"key": "token",
									"value": "eyJhbGciOiJIUzI1NiIsInR5cCI6IkpXVCJ9.eyJuYW1lIjoiRElDS1kgSVJXQU5UTyAiLCJpZCI6NjgzNCwiaXNhZmVfbm8iOiJCNDQxMjMiLCJyb2xlSWQiOjEsImlhdCI6MTU3NjEzMDE2NSwiZXhwIjoxNTc2MzMwMTY1fQ.PoPrf9Z1q3R92J2R_OSdxXW33X_ozEwqXuOYA3g-vE8",
									"type": "string"
								}
							]
						},
						"method": "GET",
						"header": [
							{
								"key": "accept",
								"value": "application/json",
								"disabled": true
							},
							{
								"key": "accept-encoding",
								"value": "gzip",
								"disabled": true
							},
							{
								"key": "cache-control",
								"value": "no-cache",
								"disabled": true
							},
							{
								"key": "connection",
								"value": "Keep-Alive",
								"disabled": true
							},
							{
								"key": "host",
								"value": "localhost1.com:3000",
								"disabled": true
							},
							{
								"key": "user-agent",
								"value": "okhttp/3.12.1",
								"disabled": true
							}
						],
						"url": {
							"raw": "{{host}}/api/v1/hr/accept?hazard_id=345",
							"host": [
								"{{host}}"
							],
							"path": [
								"api",
								"v1",
								"hr",
								"accept"
							],
							"query": [
								{
									"key": "hazard_id",
									"value": "345"
								}
							]
						}
					},
					"response": []
				},
				{
					"name": "hr.submitInv",
					"request": {
						"auth": {
							"type": "bearer",
							"bearer": [
								{
									"key": "token",
									"value": "eyJhbGciOiJIUzI1NiIsInR5cCI6IkpXVCJ9.eyJuYW1lIjoiRElDS1kgSVJXQU5UTyAiLCJpZCI6NjgzNCwiaXNhZmVfbm8iOiJCNDQxMjMiLCJpYXQiOjE1Njc1NzE4MzksImV4cCI6NDE1OTU3MTgzOX0.w9riHiBsR5swxEPGgv4tQeRtQp99uoTXNLUJLKbulKI",
									"type": "string"
								}
							]
						},
						"method": "POST",
						"header": [
							{
								"key": "accept",
								"value": "application/json"
							},
							{
								"key": "accept-encoding",
								"value": "gzip"
							},
							{
								"key": "cache-control",
								"value": "no-cache"
							},
							{
								"key": "connection",
								"value": "Keep-Alive"
							},
							{
								"key": "content-length",
								"value": "550",
								"disabled": true
							},
							{
								"key": "content-type",
								"value": "application/json"
							},
							{
								"key": "host",
								"value": "localhost1.com:3000"
							},
							{
								"key": "user-agent",
								"value": "okhttp/3.12.1"
							}
						],
						"body": {
							"mode": "raw",
							"raw": "{\n    \"hazard_id\": 260,\n    \"deskripsi\": \"Reassign from AKBAR to EDI\",\n    \"lokasi\": \"Office BIB dan Camp Angsana\",\n    \"sublokasi\": \"Office BIB\",\n    \"categories\": null,\n    \"source_of_cause\": \"Kelayakan kabel\",\n    \"penanggung_jawab\": \"AKBAR\",\n    \"kemungkinan_penyebab_langsung\": \"Pelanggaran(oleh seseorang)\",\n    \"kemungkinan_penyebab_dasar\": \"G-1 Alih pengetahuan yang tidak memadai ,ketidakmampuan untuk memahami, kualifikasi instruktur yang tidak memadai, peralatan pelatihan  yang tidak memadai, salah memahami perintah\",\n    \"deskripsi_tindak_lanjut\": \"ggg\",\n    \"sumber_nc\": \"AKBAR\",\n    \"status\": \"FOLLOW UP\"\n}"
						},
						"url": {
							"raw": "{{host}}/api/v1/hr/submitInv",
							"host": [
								"{{host}}"
							],
							"path": [
								"api",
								"v1",
								"hr",
								"submitInv"
							]
						}
					},
					"response": []
				},
				{
					"name": "POST hr/upload-image",
					"request": {
						"auth": {
							"type": "bearer",
							"bearer": [
								{
									"key": "token",
									"value": "eyJhbGciOiJIUzI1NiIsInR5cCI6IkpXVCJ9.eyJuYW1lIjoiQUtCQVIgKEhBU0JJKSIsImlkIjoxNTE3NywiaXNhZmVfbm8iOiJBS0JBUiIsImlhdCI6MTU2MzI2MTI3MiwiZXhwIjo0MTU1MjYxMjcyfQ.rU6DcdjE1CwcntrU3mndv81YbjLY7prhUMuf5elPL0w",
									"type": "string"
								}
							]
						},
						"method": "POST",
						"header": [
							{
								"key": "Content-Type",
								"name": "Content-Type",
								"value": "application/json",
								"type": "text"
							}
						],
						"body": {
							"mode": "formdata",
							"formdata": [
								{
									"key": "photos",
									"type": "file",
									"src": "/home/wahyudiansyah/Unduhan/screen.png"
								}
							]
						},
						"url": {
							"raw": "{{host}}/api/v1/hr/upload-image",
							"host": [
								"{{host}}"
							],
							"path": [
								"api",
								"v1",
								"hr",
								"upload-image"
							]
						}
					},
					"response": []
				}
			],
			"protocolProfileBehavior": []
		},
		{
			"name": "INSPEKSI",
			"item": [
				{
					"name": "POST /api/v1/inspeksi/submit",
					"request": {
						"auth": {
							"type": "bearer",
							"bearer": [
								{
									"key": "token",
									"value": "eyJhbGciOiJIUzI1NiIsInR5cCI6IkpXVCJ9.eyJuYW1lIjoiRElDS1kgSVJXQU5UTyAiLCJpZCI6NjgzNCwiaXNhZmVfbm8iOiJCNDQxMjMiLCJpYXQiOjE1NjgyNTExNDksImV4cCI6NDE2MDI1MTE0OX0.D4-VugxL_kKpDnRrLw7xfoo5V51BM2PwgBdCQzuB75I",
									"type": "string"
								}
							]
						},
						"method": "POST",
						"header": [
							{
								"key": "accept",
								"value": "application/json"
							},
							{
								"key": "accept-encoding",
								"value": "gzip"
							},
							{
								"key": "authorization",
								"value": "Bearer eyJhbGciOiJIUzI1NiIsInR5cCI6IkpXVCJ9.eyJuYW1lIjoiQUtCQVIgKEhBU0JJKSIsImlkIjoxNTE3NywiaXNhZmVfbm8iOiJBS0JBUiIsImlhdCI6MTU2MjIxNDkyMCwiZXhwIjo0MTU0MjE0OTIwfQ.fxftEQ2EwxPpGFhcK0jeRcbhmwwGJCoQj472pyE8-lM"
							},
							{
								"key": "cache-control",
								"value": "no-cache"
							},
							{
								"key": "connection",
								"value": "Keep-Alive"
							},
							{
								"key": "host",
								"value": "localhost1.com:3000"
							},
							{
								"key": "user-agent",
								"value": "okhttp/3.12.1"
							},
							{
								"key": "Content-Type",
								"name": "Content-Type",
								"value": "application/json",
								"type": "text"
							}
						],
						"body": {
							"mode": "raw",
							"raw": " {\n        \n        \"start_date\":\"2019-09-10T05:14:52.000Z\",\n        \"location_id\": 7,\n        \"judul_inspeksi\": \"Inspeksi sarana aman lokasi others area\",\n        \"sublocation_id\": 12,\n        \"detail_location\": \"Grogol\",\n        \"created_by\": 6834,\n        \"end_date\": \"2019-09-10T05:14:52.000Z\",\n        \"status\": \"NO NC\",\n        \"sarana_id\": 4549,\n        \"prasarana_id\": null,\n        \"peralatan_id\": null,\n        \"instalasi_id\": null,\n        \"sarana\": {\n            \"id\": 4549,\n            \"no_polisi\": \"DA 8562 ZH\",\n            \"merk\": \"Mitsubishi\",\n            \"model\": null,\n            \"series\": \"Triton\",\n            \"type\": \"Light Vehicle\",\n            \"no_lambung\": \"BIB 112\",\n            \"equipment_supplier\": \"PT Borneo Indobara\",\n            \"penanggung_jawab\": 4515,\n            \"penanggungJawab\": {\n                \"id\": 4515,\n                \"name\": \"ADRIANUS DARMAWAN \",\n                \"isafe_no\": \"B54A29\"\n            }\n        },\n        \"prasarana\": null,\n        \"instalasi\": null,\n        \"peralatan\": null,\n        \"nc\": [],\n        \"teams\": [\n            {\n                \"id\": 6834,\n                \"name\": \"DICKY IRWANTO \",\n                \"company\": \"PT Borneo Indobara\",\n                \"isafe_no\": \"B44123\",\n                \"jabatan\": \"TEAM LEADER\",\n                \"roleId\": 1,\n                \"dsis_hse_assessments_inspeksi_entities\": {\n                    \"assessment_id\": 88\n                }\n            }\n        ],\n        \"creator\": {\n            \"id\": 6834,\n            \"isafe_no\": \"B44123\"\n        },\n        \"images\": [\n            {\n                \"url\": \"1568092462560.JPEG\"\n            }\n        ],\n        \"dsis_master_location\": {\n            \"id\": 89,\n            \"location_name\": \"Others Area\",\n            \"dsis_master_sub_lokasis\": [\n                {\n                    \"id\": 1,\n                    \"name\": \"Others Area\"\n                }\n            ]\n        },\n        \"golden_rules_question\": [\n            {\n                \"id\": 22,\n                \"question\": \"Ketentuan keselamatan setiap pekerjaan\",\n                \"dsis_hse_assessments_inspeksi_golden_rules\": {\n                    \"checklist\": true\n                }\n            },\n            {\n                \"id\": 67,\n                \"question\": \"Ketentuan bekerja dengan Panas\",\n                \"dsis_hse_assessments_inspeksi_golden_rules\": {\n                    \"checklist\": true\n                }\n            }\n        ]\n    }"
						},
						"url": {
							"raw": "{{host}}/api/v1/inspeksi/submit",
							"host": [
								"{{host}}"
							],
							"path": [
								"api",
								"v1",
								"inspeksi",
								"submit"
							]
						}
					},
					"response": []
				},
				{
					"name": "POST /api/v1/inspeksi/submitNC",
					"request": {
						"auth": {
							"type": "bearer",
							"bearer": [
								{
									"key": "token",
									"value": "eyJhbGciOiJIUzI1NiIsInR5cCI6IkpXVCJ9.eyJuYW1lIjoiQUtCQVIgKEhBU0JJKSIsImlkIjoxNTE3NywiaXNhZmVfbm8iOiJBS0JBUiIsImlhdCI6MTU2NDM2ODI3OCwiZXhwIjo0MTU2MzY4Mjc4fQ.sv0ZIXnSdmiTFkY9MJFDmMXiKjPl4dKq7lzJvS312eA",
									"type": "string"
								}
							]
						},
						"method": "POST",
						"header": [
							{
								"key": "accept",
								"value": "application/json"
							},
							{
								"key": "accept-encoding",
								"value": "gzip"
							},
							{
								"key": "authorization",
								"value": "Bearer eyJhbGciOiJIUzI1NiIsInR5cCI6IkpXVCJ9.eyJuYW1lIjoiQUtCQVIgKEhBU0JJKSIsImlkIjoxNTE3NywiaXNhZmVfbm8iOiJBS0JBUiIsImlhdCI6MTU2MjIxNDkyMCwiZXhwIjo0MTU0MjE0OTIwfQ.fxftEQ2EwxPpGFhcK0jeRcbhmwwGJCoQj472pyE8-lM"
							},
							{
								"key": "cache-control",
								"value": "no-cache"
							},
							{
								"key": "connection",
								"value": "Keep-Alive"
							},
							{
								"key": "host",
								"value": "localhost1.com:3000"
							},
							{
								"key": "user-agent",
								"value": "okhttp/3.12.1"
							},
							{
								"key": "Content-Type",
								"name": "Content-Type",
								"value": "application/json",
								"type": "text"
							}
						],
						"body": {
							"mode": "raw",
							"raw": "{\n    \"id\": 2798,\n    \"nomor_registrasi\": \"akan-di-generate-di-back-end\",\n    \"tanggal\": \"2019-08-14T04:40:15.926Z\",\n    \"kta\": \"N/A\",\n    \"tta\": \"N/A\",\n    \"faktor_manusia\": \"N/A\",\n    \"faktor_pekerjaan\": \"N/A\",\n    \"deskripsi_tindak_lanjut\": \"accusantium tempore cupiditate\",\n    \"dsis_hse_nc_photos\": [\n        {\n            \"file_name\": \"1565757608083.JPEG\"\n        }\n    ]\n}"
						},
						"url": {
							"raw": "{{host}}/api/v1/inspeksi/submitNC",
							"host": [
								"{{host}}"
							],
							"path": [
								"api",
								"v1",
								"inspeksi",
								"submitNC"
							]
						}
					},
					"response": []
				},
				{
					"name": "GET /api/v1/inspeksi/mySubmitedInspeksi",
					"request": {
						"auth": {
							"type": "bearer",
							"bearer": [
								{
									"key": "token",
									"value": "eyJhbGciOiJIUzI1NiIsInR5cCI6IkpXVCJ9.eyJuYW1lIjoiRElDS1kgSVJXQU5UTyAiLCJpZCI6NjgzNCwiaXNhZmVfbm8iOiJCNDQxMjMiLCJpYXQiOjE1Njc1NzE4MzksImV4cCI6NDE1OTU3MTgzOX0.w9riHiBsR5swxEPGgv4tQeRtQp99uoTXNLUJLKbulKI",
									"type": "string"
								}
							]
						},
						"method": "GET",
						"header": [],
						"url": {
							"raw": "{{host}}/api/v1/inspeksi/mySubmitedInspeksi?limit=10",
							"host": [
								"{{host}}"
							],
							"path": [
								"api",
								"v1",
								"inspeksi",
								"mySubmitedInspeksi"
							],
							"query": [
								{
									"key": "limit",
									"value": "10"
								}
							]
						}
					},
					"response": []
				},
				{
					"name": "GET /api/v1/inspeksi/myTodoNC",
					"request": {
						"auth": {
							"type": "bearer",
							"bearer": [
								{
									"key": "token",
									"value": "eyJhbGciOiJIUzI1NiIsInR5cCI6IkpXVCJ9.eyJuYW1lIjoiRElDS1kgSVJXQU5UTyAiLCJpZCI6NjgzNCwiaXNhZmVfbm8iOiJCNDQxMjMiLCJpYXQiOjE1Njc1NzE4MzksImV4cCI6NDE1OTU3MTgzOX0.w9riHiBsR5swxEPGgv4tQeRtQp99uoTXNLUJLKbulKI",
									"type": "string"
								}
							]
						},
						"method": "GET",
						"header": [],
						"url": {
							"raw": "{{host}}/api/v1/inspeksi/myTodoNC?limit=10",
							"host": [
								"{{host}}"
							],
							"path": [
								"api",
								"v1",
								"inspeksi",
								"myTodoNC"
							],
							"query": [
								{
									"key": "limit",
									"value": "10"
								}
							]
						}
					},
					"response": []
				},
				{
					"name": "GET /api/v1/inspeksi/myTodoNC/:nc_id/accept",
					"request": {
						"auth": {
							"type": "bearer",
							"bearer": [
								{
									"key": "token",
									"value": "eyJhbGciOiJIUzI1NiIsInR5cCI6IkpXVCJ9.eyJuYW1lIjoiQUtCQVIgKEhBU0JJKSIsImlkIjoxNTE3NywiaXNhZmVfbm8iOiJBS0JBUiIsImlhdCI6MTU2NDM2ODI3OCwiZXhwIjo0MTU2MzY4Mjc4fQ.sv0ZIXnSdmiTFkY9MJFDmMXiKjPl4dKq7lzJvS312eA",
									"type": "string"
								}
							]
						},
						"method": "GET",
						"header": [],
						"url": {
							"raw": "{{host}}/api/v1/inspeksi/myTodoNC/2622/accept",
							"host": [
								"{{host}}"
							],
							"path": [
								"api",
								"v1",
								"inspeksi",
								"myTodoNC",
								"2622",
								"accept"
							]
						}
					},
					"response": []
				},
				{
					"name": "GET /api/v1/inspeksi/myTodoNC/:nc_id/close",
					"request": {
						"auth": {
							"type": "bearer",
							"bearer": [
								{
									"key": "token",
									"value": "eyJhbGciOiJIUzI1NiIsInR5cCI6IkpXVCJ9.eyJuYW1lIjoiQUtCQVIgKEhBU0JJKSIsImlkIjoxNTE3NywiaXNhZmVfbm8iOiJBS0JBUiIsImlhdCI6MTU2NDM2ODI3OCwiZXhwIjo0MTU2MzY4Mjc4fQ.sv0ZIXnSdmiTFkY9MJFDmMXiKjPl4dKq7lzJvS312eA",
									"type": "string"
								}
							]
						},
						"method": "GET",
						"header": [],
						"url": {
							"raw": "{{host}}/api/v1/inspeksi/myTodoNC/2982/close?note=postman",
							"host": [
								"{{host}}"
							],
							"path": [
								"api",
								"v1",
								"inspeksi",
								"myTodoNC",
								"2982",
								"close"
							],
							"query": [
								{
									"key": "note",
									"value": "postman"
								}
							]
						}
					},
					"response": []
				}
			],
			"protocolProfileBehavior": []
		},
		{
			"name": "USER",
			"item": [
				{
					"name": "POST user by id",
					"request": {
						"auth": {
							"type": "bearer",
							"bearer": [
								{
									"key": "token",
									"value": "eyJhbGciOiJIUzI1NiIsInR5cCI6IkpXVCJ9.eyJuYW1lIjoiQUtCQVIgKEhBU0JJKSIsImlkIjoxNTE3NywiaXNhZmVfbm8iOiJBS0JBUiIsImlhdCI6MTU2MjU2MDIzMywiZXhwIjo0MTU0NTYwMjMzfQ.pQGPnom46oyyRL7E7zLxxKPpBVn25J2F2OFtbwXsdi0",
									"type": "string"
								}
							]
						},
						"method": "POST",
						"header": [
							{
								"key": "Content-Type",
								"name": "Content-Type",
								"value": "application/json",
								"type": "text"
							}
						],
						"body": {
							"mode": "raw",
							"raw": "{\n\"attributes\":[\n\t\"id\",\n\t\"isafe_no\",\n\t\"name\",\n\t\"roleId\"\n\t],\n\t\"include\":[{\n\t\t\"model\":\"dsis_hse_simper_competency\"\n\t},{\n\t\t\"model\":\"dsis_hse_simper_training\"\n\t},{\"model\":\"dsis_hse_simper_work_history\"},{\"model\":\"dsis_hse_simper_mcu\"},{\"model\":\"dsis_hse_simper_family\"}]\n\t\n}"
						},
						"url": {
							"raw": "{{host}}/api/v1/users/5346",
							"host": [
								"{{host}}"
							],
							"path": [
								"api",
								"v1",
								"users",
								"5346"
							]
						}
					},
					"response": []
				},
				{
					"name": "GET All Simper List",
					"protocolProfileBehavior": {
						"disableBodyPruning": true
					},
					"request": {
						"auth": {
							"type": "bearer",
							"bearer": [
								{
									"key": "token",
									"value": "eyJhbGciOiJIUzI1NiIsInR5cCI6IkpXVCJ9.eyJuYW1lIjoiRElDS1kgSVJXQU5UTyAiLCJpZCI6NjgzNCwiaXNhZmVfbm8iOiJCNDQxMjMiLCJyb2xlSWQiOjEsImlhdCI6MTU3NTYwMDA4NCwiZXhwIjoxNTc1ODAwMDg0fQ.WKUQjF7C4jPa6NOCIJr9NAFpkaZPnXraZFJINl4Zcqw",
									"type": "string"
								}
							]
						},
						"method": "GET",
						"header": [
							{
								"key": "Content-Type",
								"name": "Content-Type",
								"value": "application/x-www-form-urlencoded",
								"type": "text"
							}
						],
						"body": {
							"mode": "urlencoded",
							"urlencoded": [
								{
									"key": "isafe_no",
									"value": "",
									"type": "text",
									"disabled": true
								},
								{
									"key": "password",
									"value": "",
									"type": "text",
									"disabled": true
								}
							]
						},
						"url": {
							"raw": "{{host}}/api/v1/simperlist",
							"host": [
								"{{host}}"
							],
							"path": [
								"api",
								"v1",
								"simperlist"
							]
						}
					},
					"response": []
				}
			],
			"protocolProfileBehavior": []
		},
		{
			"name": "CUTI",
			"item": [
				{
					"name": "POST submit",
					"request": {
						"auth": {
							"type": "bearer",
							"bearer": [
								{
									"key": "token",
									"value": "eyJhbGciOiJIUzI1NiIsInR5cCI6IkpXVCJ9.eyJuYW1lIjoiQUtCQVIgKEhBU0JJKSIsImlkIjoxNTE3NywiaXNhZmVfbm8iOiJBS0JBUiIsImlhdCI6MTU2NTQ0Nzc3NywiZXhwIjo0MTU3NDQ3Nzc3fQ.USSUczwPODQHlF_xFc-l-xNEJBFF4Bc8RmILqpt1skQ",
									"type": "string"
								}
							]
						},
						"method": "POST",
						"header": [
							{
								"key": "Content-Type",
								"name": "Content-Type",
								"value": "application/json",
								"type": "text"
							}
						],
						"body": {
							"mode": "raw",
							"raw": "{\n\n\"assign_to\":15117,\n\"start_date_off\"  : \"2019-08-23T02:03:23.492Z\",\n\"end_date_off\"    : \"2019-08-22T02:03:23.492Z\"\n}"
						},
						"url": {
							"raw": "{{host}}/api/v1/cuti/submit",
							"host": [
								"{{host}}"
							],
							"path": [
								"api",
								"v1",
								"cuti",
								"submit"
							]
						}
					},
					"response": []
				},
				{
					"name": "GET mySubmittedCuti",
					"request": {
						"method": "GET",
						"header": [],
						"url": {
							"raw": "{{host}}/api/v1/cuti/mySubmittedCuti",
							"host": [
								"{{host}}"
							],
							"path": [
								"api",
								"v1",
								"cuti",
								"mySubmittedCuti"
							]
						},
						"description": "digunakan untuk mengambil data request cuti dari user, user hanya diperbolehkan request cuti satu kali"
					},
					"response": []
				},
				{
					"name": "GET myAssignedCuti",
					"request": {
						"auth": {
							"type": "bearer",
							"bearer": [
								{
									"key": "token",
									"value": "eyJhbGciOiJIUzI1NiIsInR5cCI6IkpXVCJ9.eyJuYW1lIjoiQUtCQVIgKEhBU0JJKSIsImlkIjoxNTE3NywiaXNhZmVfbm8iOiJBS0JBUiIsImlhdCI6MTU2NTQ0Nzc3NywiZXhwIjo0MTU3NDQ3Nzc3fQ.USSUczwPODQHlF_xFc-l-xNEJBFF4Bc8RmILqpt1skQ",
									"type": "string"
								}
							]
						},
						"method": "GET",
						"header": [],
						"url": {
							"raw": "{{host}}/api/v1/cuti/myAssignedCuti",
							"host": [
								"{{host}}"
							],
							"path": [
								"api",
								"v1",
								"cuti",
								"myAssignedCuti"
							]
						},
						"description": "digunakan untuk mengambil data cuti cuti yang diassign ke user"
					},
					"response": []
				},
				{
					"name": "GET reject",
					"request": {
						"auth": {
							"type": "bearer",
							"bearer": [
								{
									"key": "token",
									"value": "eyJhbGciOiJIUzI1NiIsInR5cCI6IkpXVCJ9.eyJuYW1lIjoiQUtCQVIgKEhBU0JJKSIsImlkIjoxNTE3NywiaXNhZmVfbm8iOiJBS0JBUiIsImlhdCI6MTU2NTQ0Nzc3NywiZXhwIjo0MTU3NDQ3Nzc3fQ.USSUczwPODQHlF_xFc-l-xNEJBFF4Bc8RmILqpt1skQ",
									"type": "string"
								}
							]
						},
						"method": "GET",
						"header": [],
						"url": {
							"raw": "{{host}}/api/v1/cuti/reject?id=1",
							"host": [
								"{{host}}"
							],
							"path": [
								"api",
								"v1",
								"cuti",
								"reject"
							],
							"query": [
								{
									"key": "id",
									"value": "1"
								}
							]
						},
						"description": "untuk mereject cuti"
					},
					"response": []
				},
				{
					"name": "GET accept",
					"request": {
						"auth": {
							"type": "bearer",
							"bearer": [
								{
									"key": "token",
									"value": "eyJhbGciOiJIUzI1NiIsInR5cCI6IkpXVCJ9.eyJuYW1lIjoiQUtCQVIgKEhBU0JJKSIsImlkIjoxNTE3NywiaXNhZmVfbm8iOiJBS0JBUiIsImlhdCI6MTU2NTQ0Nzc3NywiZXhwIjo0MTU3NDQ3Nzc3fQ.USSUczwPODQHlF_xFc-l-xNEJBFF4Bc8RmILqpt1skQ",
									"type": "string"
								}
							]
						},
						"method": "GET",
						"header": [],
						"url": {
							"raw": "{{host}}/api/v1/cuti/accept?id=1",
							"host": [
								"{{host}}"
							],
							"path": [
								"api",
								"v1",
								"cuti",
								"accept"
							],
							"query": [
								{
									"key": "id",
									"value": "1"
								}
							]
						},
						"description": "digunakan untuk meng accept cuti"
					},
					"response": []
				},
				{
					"name": "GET checkBeforeCuti",
					"request": {
						"auth": {
							"type": "bearer",
							"bearer": [
								{
									"key": "token",
									"value": "eyJhbGciOiJIUzI1NiIsInR5cCI6IkpXVCJ9.eyJuYW1lIjoiQUtCQVIgKEhBU0JJKSIsImlkIjoxNTE3NywiaXNhZmVfbm8iOiJBS0JBUiIsImlhdCI6MTU2NTQ0Nzc3NywiZXhwIjo0MTU3NDQ3Nzc3fQ.USSUczwPODQHlF_xFc-l-xNEJBFF4Bc8RmILqpt1skQ",
									"type": "string"
								}
							]
						},
						"method": "GET",
						"header": [],
						"url": {
							"raw": "{{host}}/api/v1/cuti/checkBeforeCuti",
							"host": [
								"{{host}}"
							],
							"path": [
								"api",
								"v1",
								"cuti",
								"checkBeforeCuti"
							]
						}
					},
					"response": []
				},
				{
					"name": "GET checkLastCuti",
					"request": {
						"method": "GET",
						"header": [],
						"url": {
							"raw": "{{host}}/api/v1/cuti/checkLastCuti",
							"host": [
								"{{host}}"
							],
							"path": [
								"api",
								"v1",
								"cuti",
								"checkLastCuti"
							]
						}
					},
					"response": []
				},
				{
					"name": "GET myAcceptOrRejectedCuti",
					"request": {
						"auth": {
							"type": "bearer",
							"bearer": [
								{
									"key": "token",
									"value": "eyJhbGciOiJIUzI1NiIsInR5cCI6IkpXVCJ9.eyJuYW1lIjoiRElDS1kgSVJXQU5UTyAiLCJpZCI6NjgzNCwiaXNhZmVfbm8iOiJCNDQxMjMiLCJpYXQiOjE1Njc0OTkxMDgsImV4cCI6NDE1OTQ5OTEwOH0.BQUzCtLjwWc80YYcuRxhnWVvBBIhHKjG43J-vrs2Y4I",
									"type": "string"
								}
							]
						},
						"method": "GET",
						"header": [],
						"url": {
							"raw": "{{host}}/api/v1/cuti/myAcceptOrRejectedCuti",
							"host": [
								"{{host}}"
							],
							"path": [
								"api",
								"v1",
								"cuti",
								"myAcceptOrRejectedCuti"
							]
						}
					},
					"response": []
				},
				{
					"name": "GET readNotif",
					"request": {
						"auth": {
							"type": "bearer",
							"bearer": [
								{
									"key": "token",
									"value": "eyJhbGciOiJIUzI1NiIsInR5cCI6IkpXVCJ9.eyJuYW1lIjoiQUtCQVIgKEhBU0JJKSIsImlkIjoxNTE3NywiaXNhZmVfbm8iOiJBS0JBUiIsImlhdCI6MTU2NTQ0Nzc3NywiZXhwIjo0MTU3NDQ3Nzc3fQ.USSUczwPODQHlF_xFc-l-xNEJBFF4Bc8RmILqpt1skQ",
									"type": "string"
								}
							]
						},
						"method": "GET",
						"header": [],
						"url": {
							"raw": "{{host}}/api/v1/cuti/readNotif?id=1",
							"host": [
								"{{host}}"
							],
							"path": [
								"api",
								"v1",
								"cuti",
								"readNotif"
							],
							"query": [
								{
									"key": "id",
									"value": "1"
								}
							]
						}
					},
					"response": []
				}
			],
			"protocolProfileBehavior": []
		},
		{
			"name": "MENTARI",
			"item": [
				{
					"name": "GET /",
					"request": {
						"auth": {
							"type": "bearer",
							"bearer": [
								{
									"key": "token",
									"value": "eyJhbGciOiJIUzI1NiIsInR5cCI6IkpXVCJ9.eyJuYW1lIjoiQUtCQVIgKEhBU0JJKSIsImlkIjoxNTE3NywiaXNhZmVfbm8iOiJBS0JBUiIsImlhdCI6MTU2NTQ0Nzc3NywiZXhwIjo0MTU3NDQ3Nzc3fQ.USSUczwPODQHlF_xFc-l-xNEJBFF4Bc8RmILqpt1skQ",
									"type": "string"
								}
							]
						},
						"method": "GET",
						"header": [],
						"url": {
							"raw": "{{host}}/api/v1/mentari",
							"host": [
								"{{host}}"
							],
							"path": [
								"api",
								"v1",
								"mentari"
							]
						},
						"description": "ambil mentari by token"
					},
					"response": []
				}
			],
			"protocolProfileBehavior": []
		},
		{
			"name": "OBSERVASI",
			"item": [
				{
					"name": "GET /api/v1/observasi/myTodoNC",
					"protocolProfileBehavior": {
						"disableBodyPruning": true
					},
					"request": {
						"auth": {
							"type": "bearer",
							"bearer": [
								{
									"key": "token",
									"value": "eyJhbGciOiJIUzI1NiIsInR5cCI6IkpXVCJ9.eyJuYW1lIjoiRElDS1kgSVJXQU5UTyAiLCJpZCI6NjgzNCwiaXNhZmVfbm8iOiJCNDQxMjMiLCJyb2xlSWQiOjEsImlhdCI6MTU3NjEzMDE2NSwiZXhwIjoxNTc2MzMwMTY1fQ.PoPrf9Z1q3R92J2R_OSdxXW33X_ozEwqXuOYA3g-vE8",
									"type": "string"
								}
							]
						},
						"method": "GET",
						"header": [
							{
								"key": "Content-Type",
								"name": "Content-Type",
								"value": "application/json",
								"type": "text"
							},
							{
								"key": "Authorization",
								"value": "Bearer eyJhbGciOiJIUzI1NiIsInR5cCI6IkpXVCJ9.eyJuYW1lIjoiQUtCQVIgKEhBU0JJKSIsImlkIjoxNTE3NywiaXNhZmVfbm8iOiJBS0JBUiIsImlhdCI6MTU2MjIxNDkyMCwiZXhwIjo0MTU0MjE0OTIwfQ.fxftEQ2EwxPpGFhcK0jeRcbhmwwGJCoQj472pyE8-lM",
								"type": "text"
							}
						],
						"body": {
							"mode": "raw",
							"raw": "{\n    \"judul_inspeksi\": \"cemunguuuuth\",\n    \"location_id\": 15,\n    \"sublocation_id\": 15,\n    \"detail_location\": \"detail\",\n    \"asset_type_id\": 1,\n    \"unit_type_id\": 1,\n    \"form_id\": 21,\n    \"dsis_master_form_questions\": [\n        {\n            \"id\": 1,\n            \"question\": \"Periksa bagian buckle, ring-D, thimble dan wear pad. Apakah ada perubahan atau ujungnya menajam, berbunyi, retak atau permukaan rata / licin?\",\n            \"updated_at\": \"2019-06-27T04:38:50.000Z\",\n            \"deleted_by\": null,\n            \"form_id\": 21,\n            \"question_group_id\": 10,\n            \"dsis_master_form_questions_group\": {\n                \"id\": 10,\n                \"name\": \"Harness\"\n            },\n            \"select\": 1,\n            \"dsis_hse_assessments_inspeksi_question\": {\n                \"temuan\": \"ada temuan\",\n                \"risk\": \"Medium\",\n                \"type\": \"Beresiko\"\n            },\n            \"showModal\": false,\n            \"temuanKosong\": false,\n            \"riskBelumDipilih\": false\n        }\n    ],\n    \"golden_rules_id\": 56,\n    \"golden_rules_question\": [\n       \n        {\n            \"id\": 1,\n            \"question\": \"Ketentuan menggunakan unit untuk bekerja \",\n            \"updated_at\": \"2019-07-25T07:50:48.000Z\",\n            \"deleted_by\": null,\n            \"form_id\": 56,\n            \"question_group_id\": 82,\n            \"dsis_hse_assessments_inspeksi_golden_rules\": {\n                \"checklist\": false\n            }\n        }\n    ],\n    \"start_date\": \"2019-09-15T15:01:01.475Z\",\n    \"end_date\": \"2019-09-15T15:03:31.152Z\",\n    \"sarana_id\": 662,\n    \"teams\": [\n        \n    ],\n    \"images\": [\n        {\n            \"url\": \"1568559756096.JPEG\"\n        }\n    ]\n}"
						},
						"url": {
							"raw": "{{host}}/api/v1/observasi/myTodoNC",
							"host": [
								"{{host}}"
							],
							"path": [
								"api",
								"v1",
								"observasi",
								"myTodoNC"
							]
						}
					},
					"response": []
				},
				{
					"name": "GET /api/v1/observasi/:assesment_id/seen",
					"protocolProfileBehavior": {
						"disableBodyPruning": true
					},
					"request": {
						"auth": {
							"type": "bearer",
							"bearer": [
								{
									"key": "token",
									"value": "eyJhbGciOiJIUzI1NiIsInR5cCI6IkpXVCJ9.eyJuYW1lIjoiRElDS1kgSVJXQU5UTyAiLCJpZCI6NjgzNCwiaXNhZmVfbm8iOiJCNDQxMjMiLCJyb2xlSWQiOjEsImlhdCI6MTU3NjEzMDE2NSwiZXhwIjoxNTc2MzMwMTY1fQ.PoPrf9Z1q3R92J2R_OSdxXW33X_ozEwqXuOYA3g-vE8",
									"type": "string"
								}
							]
						},
						"method": "GET",
						"header": [
							{
								"key": "Content-Type",
								"name": "Content-Type",
								"value": "application/x-www-form-urlencoded",
								"type": "text"
							},
							{
								"key": "Authorization",
								"value": "Bearer eyJhbGciOiJIUzI1NiIsInR5cCI6IkpXVCJ9.eyJuYW1lIjoiQUtCQVIgKEhBU0JJKSIsImlkIjoxNTE3NywiaXNhZmVfbm8iOiJBS0JBUiIsImlhdCI6MTU2MjIxNDkyMCwiZXhwIjo0MTU0MjE0OTIwfQ.fxftEQ2EwxPpGFhcK0jeRcbhmwwGJCoQj472pyE8-lM",
								"type": "text"
							}
						],
						"body": {
							"mode": "urlencoded",
							"urlencoded": [
								{
									"key": "start_date",
									"value": "2017-07-07 07:07:07",
									"type": "text",
									"disabled": true
								},
								{
									"key": "end_date",
									"value": "2018-08-08 08:08:08",
									"type": "text",
									"disabled": true
								},
								{
									"key": "created_by",
									"value": "",
									"type": "text",
									"disabled": true
								}
							]
						},
						"url": {
							"raw": "{{host}}/api/v1/observasi/1/seen",
							"host": [
								"{{host}}"
							],
							"path": [
								"api",
								"v1",
								"observasi",
								"1",
								"seen"
							]
						}
					},
					"response": []
				},
				{
					"name": "GET /api/v1/observasi/myTodoNC/:nc_id/accept",
					"protocolProfileBehavior": {
						"disableBodyPruning": true
					},
					"request": {
						"auth": {
							"type": "bearer",
							"bearer": [
								{
									"key": "token",
									"value": "eyJhbGciOiJIUzI1NiIsInR5cCI6IkpXVCJ9.eyJuYW1lIjoiRElDS1kgSVJXQU5UTyAiLCJpZCI6NjgzNCwiaXNhZmVfbm8iOiJCNDQxMjMiLCJyb2xlSWQiOjEsImlhdCI6MTU3NjEzMDE2NSwiZXhwIjoxNTc2MzMwMTY1fQ.PoPrf9Z1q3R92J2R_OSdxXW33X_ozEwqXuOYA3g-vE8",
									"type": "string"
								}
							]
						},
						"method": "GET",
						"header": [
							{
								"key": "Content-Type",
								"name": "Content-Type",
								"value": "application/json",
								"type": "text"
							},
							{
								"key": "Authorization",
								"value": "Bearer eyJhbGciOiJIUzI1NiIsInR5cCI6IkpXVCJ9.eyJuYW1lIjoiQUtCQVIgKEhBU0JJKSIsImlkIjoxNTE3NywiaXNhZmVfbm8iOiJBS0JBUiIsImlhdCI6MTU2MjIxNDkyMCwiZXhwIjo0MTU0MjE0OTIwfQ.fxftEQ2EwxPpGFhcK0jeRcbhmwwGJCoQj472pyE8-lM",
								"type": "text"
							}
						],
						"body": {
							"mode": "raw",
							"raw": "{\n    \"judul_inspeksi\": \"cemunguuuuth\",\n    \"location_id\": 15,\n    \"sublocation_id\": 15,\n    \"detail_location\": \"detail\",\n    \"asset_type_id\": 1,\n    \"unit_type_id\": 1,\n    \"form_id\": 21,\n    \"dsis_master_form_questions\": [\n        {\n            \"id\": 1,\n            \"question\": \"Periksa bagian buckle, ring-D, thimble dan wear pad. Apakah ada perubahan atau ujungnya menajam, berbunyi, retak atau permukaan rata / licin?\",\n            \"updated_at\": \"2019-06-27T04:38:50.000Z\",\n            \"deleted_by\": null,\n            \"form_id\": 21,\n            \"question_group_id\": 10,\n            \"dsis_master_form_questions_group\": {\n                \"id\": 10,\n                \"name\": \"Harness\"\n            },\n            \"select\": 1,\n            \"dsis_hse_assessments_inspeksi_question\": {\n                \"temuan\": \"ada temuan\",\n                \"risk\": \"Medium\",\n                \"type\": \"Beresiko\"\n            },\n            \"showModal\": false,\n            \"temuanKosong\": false,\n            \"riskBelumDipilih\": false\n        }\n    ],\n    \"golden_rules_id\": 56,\n    \"golden_rules_question\": [\n       \n        {\n            \"id\": 1,\n            \"question\": \"Ketentuan menggunakan unit untuk bekerja \",\n            \"updated_at\": \"2019-07-25T07:50:48.000Z\",\n            \"deleted_by\": null,\n            \"form_id\": 56,\n            \"question_group_id\": 82,\n            \"dsis_hse_assessments_inspeksi_golden_rules\": {\n                \"checklist\": false\n            }\n        }\n    ],\n    \"start_date\": \"2019-09-15T15:01:01.475Z\",\n    \"end_date\": \"2019-09-15T15:03:31.152Z\",\n    \"sarana_id\": 662,\n    \"teams\": [\n        \n    ],\n    \"images\": [\n        {\n            \"url\": \"1568559756096.JPEG\"\n        }\n    ]\n}"
						},
						"url": {
							"raw": "{{host}}/api/v1/observasi/myTodoNC/1/accept",
							"host": [
								"{{host}}"
							],
							"path": [
								"api",
								"v1",
								"observasi",
								"myTodoNC",
								"1",
								"accept"
							]
						}
					},
					"response": []
				},
				{
					"name": "GET /api/v1/observasi/myTodoNC/:nc_id/close",
					"protocolProfileBehavior": {
						"disableBodyPruning": true
					},
					"request": {
						"auth": {
							"type": "bearer",
							"bearer": [
								{
									"key": "token",
									"value": "eyJhbGciOiJIUzI1NiIsInR5cCI6IkpXVCJ9.eyJuYW1lIjoiRElDS1kgSVJXQU5UTyAiLCJpZCI6NjgzNCwiaXNhZmVfbm8iOiJCNDQxMjMiLCJyb2xlSWQiOjEsImlhdCI6MTU3NjEzMDE2NSwiZXhwIjoxNTc2MzMwMTY1fQ.PoPrf9Z1q3R92J2R_OSdxXW33X_ozEwqXuOYA3g-vE8",
									"type": "string"
								}
							]
						},
						"method": "GET",
						"header": [
							{
								"key": "Content-Type",
								"name": "Content-Type",
								"value": "application/json",
								"type": "text"
							},
							{
								"key": "Authorization",
								"value": "Bearer eyJhbGciOiJIUzI1NiIsInR5cCI6IkpXVCJ9.eyJuYW1lIjoiQUtCQVIgKEhBU0JJKSIsImlkIjoxNTE3NywiaXNhZmVfbm8iOiJBS0JBUiIsImlhdCI6MTU2MjIxNDkyMCwiZXhwIjo0MTU0MjE0OTIwfQ.fxftEQ2EwxPpGFhcK0jeRcbhmwwGJCoQj472pyE8-lM",
								"type": "text"
							}
						],
						"body": {
							"mode": "raw",
							"raw": "{\n    \"judul_inspeksi\": \"cemunguuuuth\",\n    \"location_id\": 15,\n    \"sublocation_id\": 15,\n    \"detail_location\": \"detail\",\n    \"asset_type_id\": 1,\n    \"unit_type_id\": 1,\n    \"form_id\": 21,\n    \"dsis_master_form_questions\": [\n        {\n            \"id\": 1,\n            \"question\": \"Periksa bagian buckle, ring-D, thimble dan wear pad. Apakah ada perubahan atau ujungnya menajam, berbunyi, retak atau permukaan rata / licin?\",\n            \"updated_at\": \"2019-06-27T04:38:50.000Z\",\n            \"deleted_by\": null,\n            \"form_id\": 21,\n            \"question_group_id\": 10,\n            \"dsis_master_form_questions_group\": {\n                \"id\": 10,\n                \"name\": \"Harness\"\n            },\n            \"select\": 1,\n            \"dsis_hse_assessments_inspeksi_question\": {\n                \"temuan\": \"ada temuan\",\n                \"risk\": \"Medium\",\n                \"type\": \"Beresiko\"\n            },\n            \"showModal\": false,\n            \"temuanKosong\": false,\n            \"riskBelumDipilih\": false\n        }\n    ],\n    \"golden_rules_id\": 56,\n    \"golden_rules_question\": [\n       \n        {\n            \"id\": 1,\n            \"question\": \"Ketentuan menggunakan unit untuk bekerja \",\n            \"updated_at\": \"2019-07-25T07:50:48.000Z\",\n            \"deleted_by\": null,\n            \"form_id\": 56,\n            \"question_group_id\": 82,\n            \"dsis_hse_assessments_inspeksi_golden_rules\": {\n                \"checklist\": false\n            }\n        }\n    ],\n    \"start_date\": \"2019-09-15T15:01:01.475Z\",\n    \"end_date\": \"2019-09-15T15:03:31.152Z\",\n    \"sarana_id\": 662,\n    \"teams\": [\n        \n    ],\n    \"images\": [\n        {\n            \"url\": \"1568559756096.JPEG\"\n        }\n    ]\n}"
						},
						"url": {
							"raw": "{{host}}/api/v1/observasi/myTodoNC/1/close",
							"host": [
								"{{host}}"
							],
							"path": [
								"api",
								"v1",
								"observasi",
								"myTodoNC",
								"1",
								"close"
							]
						}
					},
					"response": []
				},
				{
					"name": "POST /api/v1/observasi/submit",
					"request": {
						"auth": {
							"type": "bearer",
							"bearer": [
								{
									"key": "token",
									"value": "eyJhbGciOiJIUzI1NiIsInR5cCI6IkpXVCJ9.eyJuYW1lIjoiRElDS1kgSVJXQU5UTyAiLCJpZCI6NjgzNCwiaXNhZmVfbm8iOiJCNDQxMjMiLCJyb2xlSWQiOjEsImlhdCI6MTU3NjEzMDE2NSwiZXhwIjoxNTc2MzMwMTY1fQ.PoPrf9Z1q3R92J2R_OSdxXW33X_ozEwqXuOYA3g-vE8",
									"type": "string"
								}
							]
						},
						"method": "POST",
						"header": [
							{
								"key": "Content-Type",
								"name": "Content-Type",
								"value": "application/json",
								"type": "text"
							},
							{
								"key": "Authorization",
								"value": "Bearer eyJhbGciOiJIUzI1NiIsInR5cCI6IkpXVCJ9.eyJuYW1lIjoiQUtCQVIgKEhBU0JJKSIsImlkIjoxNTE3NywiaXNhZmVfbm8iOiJBS0JBUiIsImlhdCI6MTU2MjIxNDkyMCwiZXhwIjo0MTU0MjE0OTIwfQ.fxftEQ2EwxPpGFhcK0jeRcbhmwwGJCoQj472pyE8-lM",
								"type": "text"
							}
						],
						"body": {
							"mode": "raw",
							"raw": "{\n\t    \"end_date\": \"2019-09-13T08:44:51.604Z\",\n\t    \"start_date\": \"2019-09-13T08:42:09.009Z\",\n\t    \"aktifitas_observasi\": \"Hchchchf\",\n\t    \"location_id\": 15,\n\t    \"sublocation_id\": 15,\n\t    \"detail_location\": \"Gjgg\",\n\t    \"company_id\": 80,\n\t    \"department_id\": 1,\n\t    \"form_id\": 64,\n\t    \"dsis_master_form_questions\": [\n\t        {\n\t            \"id\": 342,\n\t            \"question\": \"Perubahan posisi\",\n\t            \"form_id\": 64,\n\t            \"question_group_id\": 102,\n\t            \"dsis_master_form_questions_group\": {\n\t                \"id\": 102,\n\t                \"name\": \"Tindakan Manusia\"\n\t            },\n\t            \"dsis_hse_assessments_observasi_question\": {\n\t                \"temuan\": \"Ncnchfjg\",\n\t                \"risk\": \"Medium\",\n\t                \"type\": \"Beresiko\",\n\t                \"orang_terlibat\": [\n\t                    {\n\t                        \"id\": 15175\n\t                    }\n\t                ],\n\t                \"orang_aman\": [{\"id\":15176}]\n\t            }\n\t        },\n\t        {\n\t            \"id\": 343,\n\t            \"dsis_hse_assessments_observasi_question\": {\n\t                \"temuan\": \"\",\n\t                \"risk\": \"\",\n\t                \"type\": \"Aman\",\n\t                \"orang_terlibat\": [],\n\t                \"orang_aman\": [\n\t                    {\n\t                        \"id\": 15175\n\t                    },\n\t                    {\n\t                        \"id\": 15176\n\t                    }\n\t                ]\n\t            }\n\t        }\n\t       \n\t    ],\n\t    \"golden_rules_id\": 66,\n\t    \"golden_rules_question\": [\n\t        {\n\t            \"id\": 373,\n\t            \"question\": \"Ketentuan bekerja dengan benda bergerak\",\n\t            \"form_id\": 66,\n\t            \"question_group_id\": 109,\n\t            \"dsis_hse_assessments_observasi_golden_rules\": {\n\t                \"checklist\": true\n\t            }\n\t        },\n\t        {\n\t            \"id\": 374,\n\t            \"question\": \"Ketentuan bekerja di jalan raya/lalu lintas\",\n\t            \"form_id\": 66,\n\t            \"question_group_id\": 109,\n\t            \"dsis_hse_assessments_observasi_golden_rules\": {\n\t                \"checklist\": true\n\t            }\n\t        }\n\t    ],\n\t    \"teams\": [\n\t        {\n\t            \"id\": 4231,\n\t            \"isafe_no\": \"ARIF\",\n\t            \"name\": \"GRANI MENTARI\"\n\t        }\n\t    ],\n\t    \"images\": [\n\t        {\n\t            \"url\": \"1568364225998.JPEG\"\n\t        }\n\t    ],\n\t    \"object_observasi\":[{\"id\":15176}]\n\t}",
							"options": {
								"raw": {
									"language": "json"
								}
							}
						},
						"url": {
							"raw": "{{host}}/api/v1/observasi/submit",
							"host": [
								"{{host}}"
							],
							"path": [
								"api",
								"v1",
								"observasi",
								"submit"
							]
						}
					},
					"response": []
				},
				{
					"name": "POST /api/v1/observasi/submitNC",
					"request": {
						"auth": {
							"type": "bearer",
							"bearer": [
								{
									"key": "token",
									"value": "eyJhbGciOiJIUzI1NiIsInR5cCI6IkpXVCJ9.eyJuYW1lIjoiRElDS1kgSVJXQU5UTyAiLCJpZCI6NjgzNCwiaXNhZmVfbm8iOiJCNDQxMjMiLCJyb2xlSWQiOjEsImlhdCI6MTU3NjEzMDE2NSwiZXhwIjoxNTc2MzMwMTY1fQ.PoPrf9Z1q3R92J2R_OSdxXW33X_ozEwqXuOYA3g-vE8",
									"type": "string"
								}
							]
						},
						"method": "POST",
						"header": [
							{
								"key": "Content-Type",
								"name": "Content-Type",
								"value": "application/x-www-form-urlencoded",
								"type": "text"
							},
							{
								"key": "Authorization",
								"value": "Bearer eyJhbGciOiJIUzI1NiIsInR5cCI6IkpXVCJ9.eyJuYW1lIjoiQUtCQVIgKEhBU0JJKSIsImlkIjoxNTE3NywiaXNhZmVfbm8iOiJBS0JBUiIsImlhdCI6MTU2MjIxNDkyMCwiZXhwIjo0MTU0MjE0OTIwfQ.fxftEQ2EwxPpGFhcK0jeRcbhmwwGJCoQj472pyE8-lM",
								"type": "text"
							}
						],
						"body": {
							"mode": "urlencoded",
							"urlencoded": [
								{
									"key": "id",
									"value": "1",
									"type": "text"
								}
							]
						},
						"url": {
							"raw": "{{host}}/api/v1/observasi/submitNC",
							"host": [
								"{{host}}"
							],
							"path": [
								"api",
								"v1",
								"observasi",
								"submitNC"
							]
						}
					},
					"response": []
				}
			],
			"protocolProfileBehavior": []
		},
		{
			"name": "SYNC",
			"item": [
				{
					"name": "GET /sync/dsis_master_location",
					"request": {
						"auth": {
							"type": "bearer",
							"bearer": [
								{
									"key": "token",
									"value": "eyJhbGciOiJIUzI1NiIsInR5cCI6IkpXVCJ9.eyJuYW1lIjoiQUtCQVIgKEhBU0JJKSIsImlkIjoxNTE3NywiaXNhZmVfbm8iOiJBS0JBUiIsImlhdCI6MTU2MjAzMzE2OSwiZXhwIjo0MTU0MDMzMTY5fQ.yTwo1mrXsCK594Il8cYMSvyh-_qRg9LRTjwDYUnS3R8",
									"type": "string"
								}
							]
						},
						"method": "GET",
						"header": [],
						"url": {
							"raw": "{{host}}/api/v1/sync/dsis_master_location",
							"host": [
								"{{host}}"
							],
							"path": [
								"api",
								"v1",
								"sync",
								"dsis_master_location"
							]
						}
					},
					"response": []
				},
				{
					"name": "GET /sync/dsis_master_sub_lokasi",
					"request": {
						"auth": {
							"type": "bearer",
							"bearer": [
								{
									"key": "token",
									"value": "eyJhbGciOiJIUzI1NiIsInR5cCI6IkpXVCJ9.eyJuYW1lIjoiQUtCQVIgKEhBU0JJKSIsImlkIjoxNTE3NywiaXNhZmVfbm8iOiJBS0JBUiIsImlhdCI6MTU2MjAzMzE2OSwiZXhwIjo0MTU0MDMzMTY5fQ.yTwo1mrXsCK594Il8cYMSvyh-_qRg9LRTjwDYUnS3R8",
									"type": "string"
								}
							]
						},
						"method": "GET",
						"header": [],
						"url": {
							"raw": "{{host}}/api/v1/sync/dsis_master_sub_lokasi",
							"host": [
								"{{host}}"
							],
							"path": [
								"api",
								"v1",
								"sync",
								"dsis_master_sub_lokasi"
							]
						}
					},
					"response": []
				},
				{
					"name": "GET /sync/dsis_master_ketidaksesuaian",
					"request": {
						"auth": {
							"type": "bearer",
							"bearer": [
								{
									"key": "token",
									"value": "eyJhbGciOiJIUzI1NiIsInR5cCI6IkpXVCJ9.eyJuYW1lIjoiRElDS1kgSVJXQU5UTyAiLCJpZCI6NjgzNCwiaXNhZmVfbm8iOiJCNDQxMjMiLCJpYXQiOjE1NzE2MTMyNDQsImV4cCI6MTU3MTgxMzI0NH0.xoXsf96OUJuNNDnWuycVdZuq2W1a0R842TuI2cWLHU0",
									"type": "string"
								}
							]
						},
						"method": "GET",
						"header": [],
						"url": {
							"raw": "{{host}}/api/v1/sync/dsis_master_ketidaksesuaian",
							"host": [
								"{{host}}"
							],
							"path": [
								"api",
								"v1",
								"sync",
								"dsis_master_ketidaksesuaian"
							]
						}
					},
					"response": []
				},
				{
					"name": "GET /sync/dsis_master_analisa_penyebab_langsung",
					"request": {
						"auth": {
							"type": "bearer",
							"bearer": [
								{
									"key": "token",
									"value": "eyJhbGciOiJIUzI1NiIsInR5cCI6IkpXVCJ9.eyJuYW1lIjoiRElDS1kgSVJXQU5UTyAiLCJpZCI6NjgzNCwiaXNhZmVfbm8iOiJCNDQxMjMiLCJpYXQiOjE1NzE2MTMyNDQsImV4cCI6MTU3MTgxMzI0NH0.xoXsf96OUJuNNDnWuycVdZuq2W1a0R842TuI2cWLHU0",
									"type": "string"
								}
							]
						},
						"method": "GET",
						"header": [],
						"url": {
							"raw": "{{host}}/api/v1/sync/dsis_master_analisa_penyebab_langsung",
							"host": [
								"{{host}}"
							],
							"path": [
								"api",
								"v1",
								"sync",
								"dsis_master_analisa_penyebab_langsung"
							]
						}
					},
					"response": []
				},
				{
					"name": "GET /sync/dsis_master_penyebab_dasar",
					"request": {
						"auth": {
							"type": "bearer",
							"bearer": [
								{
									"key": "token",
									"value": "eyJhbGciOiJIUzI1NiIsInR5cCI6IkpXVCJ9.eyJuYW1lIjoiRElDS1kgSVJXQU5UTyAiLCJpZCI6NjgzNCwiaXNhZmVfbm8iOiJCNDQxMjMiLCJpYXQiOjE1NzE2MTMyNDQsImV4cCI6MTU3MTgxMzI0NH0.xoXsf96OUJuNNDnWuycVdZuq2W1a0R842TuI2cWLHU0",
									"type": "string"
								}
							]
						},
						"method": "GET",
						"header": [],
						"url": {
							"raw": "{{host}}/api/v1/sync/dsis_master_penyebab_dasar?updatedAt>=2019-10-21T01:17:59.743Z",
							"host": [
								"{{host}}"
							],
							"path": [
								"api",
								"v1",
								"sync",
								"dsis_master_penyebab_dasar"
							],
							"query": [
								{
									"key": "updatedAt>",
									"value": "2019-10-21T01:17:59.743Z"
								}
							]
						}
					},
					"response": []
				},
				{
					"name": "GET /sync/dsis_hse_simper_competency",
					"request": {
						"auth": {
							"type": "bearer",
							"bearer": [
								{
									"key": "token",
									"value": "eyJhbGciOiJIUzI1NiIsInR5cCI6IkpXVCJ9.eyJuYW1lIjoiQUtCQVIgKEhBU0JJKSIsImlkIjoxNTE3NywiaXNhZmVfbm8iOiJBS0JBUiIsImlhdCI6MTU2MjAzMzE2OSwiZXhwIjo0MTU0MDMzMTY5fQ.yTwo1mrXsCK594Il8cYMSvyh-_qRg9LRTjwDYUnS3R8",
									"type": "string"
								}
							]
						},
						"method": "GET",
						"header": [],
						"url": {
							"raw": "{{host}}/api/v1/sync/dsis_hse_simper_competency",
							"host": [
								"{{host}}"
							],
							"path": [
								"api",
								"v1",
								"sync",
								"dsis_hse_simper_competency"
							]
						}
					},
					"response": []
				},
				{
					"name": "GET /sync/dsis_hse_simper_training",
					"request": {
						"auth": {
							"type": "bearer",
							"bearer": [
								{
									"key": "token",
									"value": "eyJhbGciOiJIUzI1NiIsInR5cCI6IkpXVCJ9.eyJuYW1lIjoiQUtCQVIgKEhBU0JJKSIsImlkIjoxNTE3NywiaXNhZmVfbm8iOiJBS0JBUiIsImlhdCI6MTU2MjAzMzE2OSwiZXhwIjo0MTU0MDMzMTY5fQ.yTwo1mrXsCK594Il8cYMSvyh-_qRg9LRTjwDYUnS3R8",
									"type": "string"
								}
							]
						},
						"method": "GET",
						"header": [],
						"url": {
							"raw": "{{host}}/api/v1/sync/dsis_hse_simper_training",
							"host": [
								"{{host}}"
							],
							"path": [
								"api",
								"v1",
								"sync",
								"dsis_hse_simper_training"
							]
						}
					},
					"response": []
				},
				{
					"name": "GET /sync/dsis_hse_simper_family",
					"request": {
						"auth": {
							"type": "bearer",
							"bearer": [
								{
									"key": "token",
									"value": "eyJhbGciOiJIUzI1NiIsInR5cCI6IkpXVCJ9.eyJuYW1lIjoiQUtCQVIgKEhBU0JJKSIsImlkIjoxNTE3NywiaXNhZmVfbm8iOiJBS0JBUiIsImlhdCI6MTU2MjAzMzE2OSwiZXhwIjo0MTU0MDMzMTY5fQ.yTwo1mrXsCK594Il8cYMSvyh-_qRg9LRTjwDYUnS3R8",
									"type": "string"
								}
							]
						},
						"method": "GET",
						"header": [],
						"url": {
							"raw": "{{host}}/api/v1/sync/dsis_hse_simper_family",
							"host": [
								"{{host}}"
							],
							"path": [
								"api",
								"v1",
								"sync",
								"dsis_hse_simper_family"
							]
						}
					},
					"response": []
				},
				{
					"name": "GET /sync/dsis_hse_simper_pelanggaran",
					"request": {
						"auth": {
							"type": "bearer",
							"bearer": [
								{
									"key": "token",
									"value": "eyJhbGciOiJIUzI1NiIsInR5cCI6IkpXVCJ9.eyJuYW1lIjoiQUtCQVIgKEhBU0JJKSIsImlkIjoxNTE3NywiaXNhZmVfbm8iOiJBS0JBUiIsImlhdCI6MTU2MjAzMzE2OSwiZXhwIjo0MTU0MDMzMTY5fQ.yTwo1mrXsCK594Il8cYMSvyh-_qRg9LRTjwDYUnS3R8",
									"type": "string"
								}
							]
						},
						"method": "GET",
						"header": [],
						"url": {
							"raw": "{{host}}/api/v1/sync/dsis_hse_simper_pelanggaran",
							"host": [
								"{{host}}"
							],
							"path": [
								"api",
								"v1",
								"sync",
								"dsis_hse_simper_pelanggaran"
							]
						}
					},
					"response": []
				},
				{
					"name": "GET /sync/dsis_hse_simper",
					"request": {
						"auth": {
							"type": "bearer",
							"bearer": [
								{
									"key": "token",
									"value": "eyJhbGciOiJIUzI1NiIsInR5cCI6IkpXVCJ9.eyJuYW1lIjoiRElDS1kgSVJXQU5UTyAiLCJpZCI6NjgzNCwiaXNhZmVfbm8iOiJCNDQxMjMiLCJyb2xlSWQiOjEsImlhdCI6MTU3NjU0OTU4MCwiZXhwIjoxNTc2NzQ5NTgwfQ.omsPeq6Xdy7Lu9JYH5DCExuuMPbOkB9QFAGUfgZXbuo",
									"type": "string"
								}
							]
						},
						"method": "GET",
						"header": [],
						"url": {
							"raw": "{{host}}/api/v1/sync/dsis_hse_simper",
							"host": [
								"{{host}}"
							],
							"path": [
								"api",
								"v1",
								"sync",
								"dsis_hse_simper"
							]
						}
					},
					"response": []
				},
				{
					"name": "GET /sync/dsis_master_tipe_aset",
					"request": {
						"auth": {
							"type": "bearer",
							"bearer": [
								{
									"key": "token",
									"value": "eyJhbGciOiJIUzI1NiIsInR5cCI6IkpXVCJ9.eyJuYW1lIjoiQUtCQVIgKEhBU0JJKSIsImlkIjoxNTE3NywiaXNhZmVfbm8iOiJBS0JBUiIsImlhdCI6MTU2MjAzMzE2OSwiZXhwIjo0MTU0MDMzMTY5fQ.yTwo1mrXsCK594Il8cYMSvyh-_qRg9LRTjwDYUnS3R8",
									"type": "string"
								}
							]
						},
						"method": "GET",
						"header": [],
						"url": {
							"raw": "{{host}}/api/v1/sync/dsis_master_tipe_aset",
							"host": [
								"{{host}}"
							],
							"path": [
								"api",
								"v1",
								"sync",
								"dsis_master_tipe_aset"
							]
						}
					},
					"response": []
				},
				{
					"name": "GET /sync/dsis_master_tipe_unit",
					"request": {
						"auth": {
							"type": "bearer",
							"bearer": [
								{
									"key": "token",
									"value": "eyJhbGciOiJIUzI1NiIsInR5cCI6IkpXVCJ9.eyJuYW1lIjoiQUtCQVIgKEhBU0JJKSIsImlkIjoxNTE3NywiaXNhZmVfbm8iOiJBS0JBUiIsImlhdCI6MTU2MjAzMzE2OSwiZXhwIjo0MTU0MDMzMTY5fQ.yTwo1mrXsCK594Il8cYMSvyh-_qRg9LRTjwDYUnS3R8",
									"type": "string"
								}
							]
						},
						"method": "GET",
						"header": [],
						"url": {
							"raw": "{{host}}/api/v1/sync/dsis_master_tipe_unit",
							"host": [
								"{{host}}"
							],
							"path": [
								"api",
								"v1",
								"sync",
								"dsis_master_tipe_unit"
							]
						}
					},
					"response": []
				},
				{
					"name": "GET /sync/dsis_master_form",
					"request": {
						"auth": {
							"type": "bearer",
							"bearer": [
								{
									"key": "token",
									"value": "eyJhbGciOiJIUzI1NiIsInR5cCI6IkpXVCJ9.eyJuYW1lIjoiQUtCQVIgKEhBU0JJKSIsImlkIjoxNTE3NywiaXNhZmVfbm8iOiJBS0JBUiIsImlhdCI6MTU2MjAzMzE2OSwiZXhwIjo0MTU0MDMzMTY5fQ.yTwo1mrXsCK594Il8cYMSvyh-_qRg9LRTjwDYUnS3R8",
									"type": "string"
								}
							]
						},
						"method": "GET",
						"header": [],
						"url": {
							"raw": "{{host}}/api/v1/sync/dsis_master_form",
							"host": [
								"{{host}}"
							],
							"path": [
								"api",
								"v1",
								"sync",
								"dsis_master_form"
							]
						}
					},
					"response": []
				},
				{
					"name": "GET /sync/dsis_master_form_questions",
					"request": {
						"auth": {
							"type": "bearer",
							"bearer": [
								{
									"key": "token",
									"value": "eyJhbGciOiJIUzI1NiIsInR5cCI6IkpXVCJ9.eyJuYW1lIjoiQUtCQVIgKEhBU0JJKSIsImlkIjoxNTE3NywiaXNhZmVfbm8iOiJBS0JBUiIsImlhdCI6MTU2MjAzMzE2OSwiZXhwIjo0MTU0MDMzMTY5fQ.yTwo1mrXsCK594Il8cYMSvyh-_qRg9LRTjwDYUnS3R8",
									"type": "string"
								}
							]
						},
						"method": "GET",
						"header": [],
						"url": {
							"raw": "{{host}}/api/v1/sync/dsis_master_form_questions",
							"host": [
								"{{host}}"
							],
							"path": [
								"api",
								"v1",
								"sync",
								"dsis_master_form_questions"
							]
						}
					},
					"response": []
				},
				{
					"name": "GET /sync/dsis_master_form_questions_group",
					"request": {
						"auth": {
							"type": "bearer",
							"bearer": [
								{
									"key": "token",
									"value": "eyJhbGciOiJIUzI1NiIsInR5cCI6IkpXVCJ9.eyJuYW1lIjoiQUtCQVIgKEhBU0JJKSIsImlkIjoxNTE3NywiaXNhZmVfbm8iOiJBS0JBUiIsImlhdCI6MTU2MjAzMzE2OSwiZXhwIjo0MTU0MDMzMTY5fQ.yTwo1mrXsCK594Il8cYMSvyh-_qRg9LRTjwDYUnS3R8",
									"type": "string"
								}
							]
						},
						"method": "GET",
						"header": [],
						"url": {
							"raw": "{{host}}/api/v1/sync/dsis_master_form_questions_group",
							"host": [
								"{{host}}"
							],
							"path": [
								"api",
								"v1",
								"sync",
								"dsis_master_form_questions_group"
							]
						}
					},
					"response": []
				},
				{
					"name": "GET /sync/dsis_master_unit",
					"request": {
						"auth": {
							"type": "bearer",
							"bearer": [
								{
									"key": "token",
									"value": "eyJhbGciOiJIUzI1NiIsInR5cCI6IkpXVCJ9.eyJuYW1lIjoiQUtCQVIgKEhBU0JJKSIsImlkIjoxNTE3NywiaXNhZmVfbm8iOiJBS0JBUiIsImlhdCI6MTU2MjAzMzE2OSwiZXhwIjo0MTU0MDMzMTY5fQ.yTwo1mrXsCK594Il8cYMSvyh-_qRg9LRTjwDYUnS3R8",
									"type": "string"
								}
							]
						},
						"method": "GET",
						"header": [],
						"url": {
							"raw": "{{host}}/api/v1/sync/dsis_master_unit",
							"host": [
								"{{host}}"
							],
							"path": [
								"api",
								"v1",
								"sync",
								"dsis_master_unit"
							]
						}
					},
					"response": []
				},
				{
					"name": "GET /sync/dsis_master_unit_prasarana",
					"request": {
						"auth": {
							"type": "bearer",
							"bearer": [
								{
									"key": "token",
									"value": "eyJhbGciOiJIUzI1NiIsInR5cCI6IkpXVCJ9.eyJuYW1lIjoiQUtCQVIgKEhBU0JJKSIsImlkIjoxNTE3NywiaXNhZmVfbm8iOiJBS0JBUiIsImlhdCI6MTU2MjAzMzE2OSwiZXhwIjo0MTU0MDMzMTY5fQ.yTwo1mrXsCK594Il8cYMSvyh-_qRg9LRTjwDYUnS3R8",
									"type": "string"
								}
							]
						},
						"method": "GET",
						"header": [],
						"url": {
							"raw": "{{host}}/api/v1/sync/dsis_master_unit_prasarana",
							"host": [
								"{{host}}"
							],
							"path": [
								"api",
								"v1",
								"sync",
								"dsis_master_unit_prasarana"
							]
						}
					},
					"response": []
				},
				{
					"name": "GET /sync/dsis_master_unit_peralatan",
					"request": {
						"auth": {
							"type": "bearer",
							"bearer": [
								{
									"key": "token",
									"value": "eyJhbGciOiJIUzI1NiIsInR5cCI6IkpXVCJ9.eyJuYW1lIjoiQUtCQVIgKEhBU0JJKSIsImlkIjoxNTE3NywiaXNhZmVfbm8iOiJBS0JBUiIsImlhdCI6MTU2MjAzMzE2OSwiZXhwIjo0MTU0MDMzMTY5fQ.yTwo1mrXsCK594Il8cYMSvyh-_qRg9LRTjwDYUnS3R8",
									"type": "string"
								}
							]
						},
						"method": "GET",
						"header": [],
						"url": {
							"raw": "{{host}}/api/v1/sync/dsis_master_unit_peralatan",
							"host": [
								"{{host}}"
							],
							"path": [
								"api",
								"v1",
								"sync",
								"dsis_master_unit_peralatan"
							]
						}
					},
					"response": []
				},
				{
					"name": "GET /sync/dsis_master_unit_instalasi",
					"request": {
						"auth": {
							"type": "bearer",
							"bearer": [
								{
									"key": "token",
									"value": "eyJhbGciOiJIUzI1NiIsInR5cCI6IkpXVCJ9.eyJuYW1lIjoiQUtCQVIgKEhBU0JJKSIsImlkIjoxNTE3NywiaXNhZmVfbm8iOiJBS0JBUiIsImlhdCI6MTU2MjAzMzE2OSwiZXhwIjo0MTU0MDMzMTY5fQ.yTwo1mrXsCK594Il8cYMSvyh-_qRg9LRTjwDYUnS3R8",
									"type": "string"
								}
							]
						},
						"method": "GET",
						"header": [],
						"url": {
							"raw": "{{host}}/api/v1/sync/dsis_master_unit_instalasi",
							"host": [
								"{{host}}"
							],
							"path": [
								"api",
								"v1",
								"sync",
								"dsis_master_unit_instalasi"
							]
						}
					},
					"response": []
				},
				{
					"name": "GET /sync/dsis_master_kontraktor",
					"request": {
						"auth": {
							"type": "bearer",
							"bearer": [
								{
									"key": "token",
									"value": "eyJhbGciOiJIUzI1NiIsInR5cCI6IkpXVCJ9.eyJuYW1lIjoiQUtCQVIgKEhBU0JJKSIsImlkIjoxNTE3NywiaXNhZmVfbm8iOiJBS0JBUiIsImlhdCI6MTU2MjAzMzE2OSwiZXhwIjo0MTU0MDMzMTY5fQ.yTwo1mrXsCK594Il8cYMSvyh-_qRg9LRTjwDYUnS3R8",
									"type": "string"
								}
							]
						},
						"method": "GET",
						"header": [],
						"url": {
							"raw": "{{host}}/api/v1/sync/dsis_master_kontraktor",
							"host": [
								"{{host}}"
							],
							"path": [
								"api",
								"v1",
								"sync",
								"dsis_master_kontraktor"
							]
						}
					},
					"response": []
				},
				{
					"name": "GET /sync/dsis_master_department",
					"request": {
						"auth": {
							"type": "bearer",
							"bearer": [
								{
									"key": "token",
									"value": "eyJhbGciOiJIUzI1NiIsInR5cCI6IkpXVCJ9.eyJuYW1lIjoiQUtCQVIgKEhBU0JJKSIsImlkIjoxNTE3NywiaXNhZmVfbm8iOiJBS0JBUiIsImlhdCI6MTU2MjAzMzE2OSwiZXhwIjo0MTU0MDMzMTY5fQ.yTwo1mrXsCK594Il8cYMSvyh-_qRg9LRTjwDYUnS3R8",
									"type": "string"
								}
							]
						},
						"method": "GET",
						"header": [],
						"url": {
							"raw": "{{host}}/api/v1/sync/dsis_master_department",
							"host": [
								"{{host}}"
							],
							"path": [
								"api",
								"v1",
								"sync",
								"dsis_master_department"
							]
						}
					},
					"response": []
				},
				{
					"name": "GET /sync/dsis_master_position",
					"request": {
						"auth": {
							"type": "bearer",
							"bearer": [
								{
									"key": "token",
									"value": "eyJhbGciOiJIUzI1NiIsInR5cCI6IkpXVCJ9.eyJuYW1lIjoiQUtCQVIgKEhBU0JJKSIsImlkIjoxNTE3NywiaXNhZmVfbm8iOiJBS0JBUiIsImlhdCI6MTU2MjAzMzE2OSwiZXhwIjo0MTU0MDMzMTY5fQ.yTwo1mrXsCK594Il8cYMSvyh-_qRg9LRTjwDYUnS3R8",
									"type": "string"
								}
							]
						},
						"method": "GET",
						"header": [],
						"url": {
							"raw": "{{host}}/api/v1/sync/dsis_master_position",
							"host": [
								"{{host}}"
							],
							"path": [
								"api",
								"v1",
								"sync",
								"dsis_master_position"
							]
						}
					},
					"response": []
				}
			],
			"protocolProfileBehavior": []
		},
		{
			"name": "login",
			"item": [
				{
					"name": "Change Password",
					"request": {
						"method": "POST",
						"header": [
							{
								"key": "Content-Type",
								"name": "Content-Type",
								"value": "application/json",
								"type": "text"
							}
						],
						"body": {
							"mode": "raw",
							"raw": "{\n\t\n\t\"isafe_no\" : \"MARTONO\",\n\t\"password\" : \"MARTONO\",\n\t\"passwordTwice\" : \"MARTONO\"\n}"
						},
						"url": {
							"raw": "{{host}}/api/v1/changePassword",
							"host": [
								"{{host}}"
							],
							"path": [
								"api",
								"v1",
								"changePassword"
							]
						}
					},
					"response": []
				},
				{
					"name": "Forgot Password",
					"request": {
						"method": "POST",
						"header": [
							{
								"key": "Content-Type",
								"name": "Content-Type",
								"value": "application/json",
								"type": "text"
							}
						],
						"body": {
							"mode": "raw",
							"raw": "{\n\t\"isafe_no\" : \"TONO\",\n\t\"date_of_birth\": \"1976-07-20\"\n}"
						},
						"url": {
							"raw": "{{host}}/api/v1/forgotPass",
							"host": [
								"{{host}}"
							],
							"path": [
								"api",
								"v1",
								"forgotPass"
							]
						}
					},
					"response": []
				},
				{
					"name": "Login Force Local",
					"request": {
						"method": "POST",
						"header": [
							{
								"key": "Content-Type",
								"name": "Content-Type",
								"value": "application/json",
								"type": "text"
							}
						],
						"body": {
							"mode": "raw",
							"raw": "{\n\t\n\t\"isafe_no\" : \"C7A23C0A0B\",\n\t\"password\" : \"VYDC89\"\n}"
						},
						"url": {
							"raw": "{{host}}/api/v1/loginForce",
							"host": [
								"{{host}}"
							],
							"path": [
								"api",
								"v1",
								"loginForce"
							]
						}
					},
					"response": []
				},
				{
					"name": "Login Force",
					"request": {
						"method": "POST",
						"header": [
							{
								"key": "Content-Type",
								"name": "Content-Type",
								"value": "application/x-www-form-urlencoded",
								"type": "text"
							}
						],
						"body": {
							"mode": "urlencoded",
							"urlencoded": [
								{
									"key": "isafe_no",
									"value": "",
									"type": "text"
								},
								{
									"key": "password",
									"value": "",
									"type": "text"
								}
							]
						},
						"url": {
							"raw": "{{host}}/api/v1/loginForce",
							"host": [
								"{{host}}"
							],
							"path": [
								"api",
								"v1",
								"loginForce"
							]
						}
					},
					"response": []
				}
			],
			"protocolProfileBehavior": []
		},
		{
			"name": "Logout",
			"item": [
				{
					"name": "logout",
					"request": {
						"method": "POST",
						"header": [
							{
								"key": "Content-Type",
								"name": "Content-Type",
								"value": "application/json",
								"type": "text"
							}
						],
						"body": {
							"mode": "raw",
							"raw": "{\n\t\"fcmToken\" : \"fLiBGfTwoIU:APA91bGE1JlftzbpmrWGvo2v23ME-UyiibNjYkGEbN72Kam-VOo_fUD1VxLrTuubxznrimuz7e1rT6VMsfr_76P85GUtatkylkr8D9TIe0lJMoNHTQ3D3WDehQmtsw8B33a6YCuKouyd\"\n}"
						},
						"url": {
							"raw": "{{host}}/api/v1/logout",
							"host": [
								"{{host}}"
							],
							"path": [
								"api",
								"v1",
								"logout"
							]
						}
					},
					"response": []
				}
			],
			"protocolProfileBehavior": []
		},
		{
			"name": "Campaign",
			"item": [
				{
					"name": "Get Campaign",
					"request": {
						"method": "GET",
						"header": [],
						"url": {
							"raw": "{{host}}/api/v1/campaign",
							"host": [
								"{{host}}"
							],
							"path": [
								"api",
								"v1",
								"campaign"
							]
						}
					},
					"response": []
				}
			],
			"protocolProfileBehavior": []
		},
		{
			"name": "SIMPER",
			"item": [
				{
					"name": "GET Simper List",
					"protocolProfileBehavior": {
						"disableBodyPruning": true
					},
					"request": {
						"auth": {
							"type": "bearer",
							"bearer": [
								{
									"key": "token",
									"value": "eyJhbGciOiJIUzI1NiIsInR5cCI6IkpXVCJ9.eyJuYW1lIjoiRElDS1kgSVJXQU5UTyAiLCJpZCI6NjgzNCwiaXNhZmVfbm8iOiJCNDQxMjMiLCJyb2xlSWQiOjEsImlhdCI6MTU3NjU0OTU4MCwiZXhwIjoxNTc2NzQ5NTgwfQ.omsPeq6Xdy7Lu9JYH5DCExuuMPbOkB9QFAGUfgZXbuo",
									"type": "string"
								}
							]
						},
						"method": "GET",
						"header": [
							{
								"key": "Content-Type",
								"name": "Content-Type",
								"value": "application/x-www-form-urlencoded",
								"type": "text"
							}
						],
						"body": {
							"mode": "urlencoded",
							"urlencoded": [
								{
									"key": "isafe_no",
									"value": "",
									"type": "text",
									"disabled": true
								},
								{
									"key": "password",
									"value": "",
									"type": "text",
									"disabled": true
								}
							]
						},
						"url": {
							"raw": "{{host}}/api/v1/simperlist?",
							"host": [
								"{{host}}"
							],
							"path": [
								"api",
								"v1",
								"simperlist"
							],
							"query": [
								{
									"key": "last_sync",
									"value": "2017-07-07 07:07:07",
									"disabled": true
								}
							]
						}
					},
					"response": []
				},
				{
					"name": "GET Simper List - Filter Company",
					"protocolProfileBehavior": {
						"disableBodyPruning": true
					},
					"request": {
						"auth": {
							"type": "bearer",
							"bearer": [
								{
									"key": "token",
									"value": "eyJhbGciOiJIUzI1NiIsInR5cCI6IkpXVCJ9.eyJuYW1lIjoiRElDS1kgSVJXQU5UTyAiLCJpZCI6NjgzNCwiaXNhZmVfbm8iOiJCNDQxMjMiLCJyb2xlSWQiOjEsImlhdCI6MTU3NzQyNzY0OSwiZXhwIjoxNTc3NjI3NjQ5fQ.SS90Xm4PzPrHP3nJPDwjeGb5yPA--yYx0pXDh85Gw9E",
									"type": "string"
								}
							]
						},
						"method": "GET",
						"header": [
							{
								"key": "Content-Type",
								"name": "Content-Type",
								"value": "application/x-www-form-urlencoded",
								"type": "text"
							}
						],
						"body": {
							"mode": "urlencoded",
							"urlencoded": [
								{
									"key": "isafe_no",
									"value": "",
									"type": "text",
									"disabled": true
								},
								{
									"key": "password",
									"value": "",
									"type": "text",
									"disabled": true
								}
							]
						},
						"url": {
							"raw": "{{host}}/api/v1/simperlist/company?filter_company=SAT",
							"host": [
								"{{host}}"
							],
							"path": [
								"api",
								"v1",
								"simperlist",
								"company"
							],
							"query": [
								{
									"key": "filter_company",
									"value": "SAT"
								}
							]
						}
					},
					"response": []
				},
				{
					"name": "GET Simper By Role ID",
					"request": {
						"auth": {
							"type": "bearer",
							"bearer": [
								{
									"key": "token",
									"value": "eyJhbGciOiJIUzI1NiIsInR5cCI6IkpXVCJ9.eyJuYW1lIjoiRElDS1kgSVJXQU5UTyAiLCJpZCI6NjgzNCwiaXNhZmVfbm8iOiJCNDQxMjMiLCJyb2xlSWQiOjEsImlhdCI6MTU3ODU2NDM0OSwiZXhwIjoxNTc4NzY0MzQ5fQ.B2ehz1UM-OmoH0UK8Gq8Cha6grHH6yWwbRtVcb3Zwtc",
									"type": "string"
								}
							]
						},
						"method": "GET",
						"header": [],
						"url": {
							"raw": "{{host}}/api/v1/simperlist/role?role_id=1",
							"host": [
								"{{host}}"
							],
							"path": [
								"api",
								"v1",
								"simperlist",
								"role"
							],
							"query": [
								{
									"key": "role_id",
									"value": "1"
								}
							]
						}
					},
					"response": []
				}
			],
			"protocolProfileBehavior": {}
		},
		{
			"name": "SUBLOKASI",
			"item": [
				{
					"name": "GET SUBLOKASI By LokasiID",
					"request": {
						"auth": {
							"type": "bearer",
							"bearer": [
								{
									"key": "token",
									"value": "eyJhbGciOiJIUzI1NiIsInR5cCI6IkpXVCJ9.eyJuYW1lIjoiRElDS1kgSVJXQU5UTyAiLCJpZCI6NjgzNCwiaXNhZmVfbm8iOiJCNDQxMjMiLCJyb2xlSWQiOjEsImlhdCI6MTU3ODU2NDM0OSwiZXhwIjoxNTc4NzY0MzQ5fQ.B2ehz1UM-OmoH0UK8Gq8Cha6grHH6yWwbRtVcb3Zwtc",
									"type": "string"
								}
							]
						},
						"method": "GET",
						"header": [],
						"url": {
							"raw": "{{host}}/api/v1/findAllLocations/sublokasi?lokasi_id=38",
							"host": [
								"{{host}}"
							],
							"path": [
								"api",
								"v1",
								"findAllLocations",
								"sublokasi"
							],
							"query": [
								{
									"key": "lokasi_id",
									"value": "38"
								}
							]
						}
					},
					"response": []
				}
			],
			"protocolProfileBehavior": {}
		}
	],
	"protocolProfileBehavior": []
}